###############################################################
#  Generated by:      Cadence Innovus 17.11-s080_1
#  OS:                Linux x86_64(Host ID localhost.localdomain)
#  Generated on:      Fri Oct 18 19:59:41 2019
#  Design:            dlx_32_8_1_1
#  Command:           verifyConnectivity -type all -error 1000 -warning 50
###############################################################
Verify Connectivity Report is created on Fri Oct 18 19:59:41 2019




Begin Summary
    Found no problems or warnings.
End Summary
